Zoom Class • zoomclass
…
Class Session

Suppose that our Zoom classroom was started at 10:00 and ended at 12:00, I will call class_session() as follows:

(Input class_start and class_end as 24-hours clock time with no AM or PM)

pp_heroes_session <- 
  class_session(pp_heroes, 
                class_start = "10:00", # Official class started at 10:00 AM
                class_end = "12:00" # Official class ended at 12:00 PM
                )

pp_heroes_session
#> # A tibble: 31 × 17
#>    `Name (Original N… Name    Name_Original Email    Session Class_Start        
#>    <chr>              <chr>   <chr>         <chr>      <int> <dttm>             
#>  1 001_Magus          001_Ma… <NA>          magus_u…       1 2021-11-19 10:00:00
#>  2 002_She-Thing      002_Sh… <NA>          she-thi…       1 2021-11-19 10:00:00
#>  3 003_Power Girl (K… 003_Po… Kara Zor-L    power-g…       1 2021-11-19 10:00:00
#>  4 003_Power Girl (K… 003_Po… Kara Zor-L    power-g…       2 2021-11-19 10:00:00
#>  5 004_Angel Salvado… 004_An… <NA>          angel-s…       1 2021-11-19 10:00:00
#>  6 005_Donna Troy     005_Do… <NA>          donna-t…       1 2021-11-19 10:00:00
#>  7 006_Phoenix        006_Ph… <NA>          phoenix…       1 2021-11-19 10:00:00
#>  8 007_Birdman        007_Bi… <NA>          birdman…       1 2021-11-19 10:00:00
#>  9 008_Simon Baz      008_Si… <NA>          simon-b…       1 2021-11-19 10:00:00
#> 10 009_Juggernaut (C… 009_Ju… Cain Marko    juggern…       1 2021-11-19 10:00:00
#> # … with 21 more rows, and 11 more variables: Class_End <dttm>,
#> #   Join_Time <dttm>, Leave_Time <dttm>, Before_Class <Period>,
#> #   During_Class <Period>, After_Class <Period>, Total_Time <Period>,
#> #   Duration_Minutes <dbl>, Guest <chr>, Rec_Consent <chr>, Multi_Device <lgl>
…
You can join heroes_students with pp_heroes_studentsID using dplyr::*_join functions by ID.

heroes_students %>% 
  filter(Enrolled) %>% 
  # Merge to Zoom data by `ID`
  full_join(pp_heroes_studentsID, by = "ID", suffix = c("_from_ID", "_from_Zoom"))
#> # A tibble: 27 × 17
#>    ID    Name_from_ID    Enrolled Name_from_Zoom     Email         Session_Count
#>    <chr> <chr>           <lgl>    <chr>              <chr>                 <int>
#>  1 002   She-Thing       TRUE     002_She-Thing      she-thing_ra…             1
#>  2 004   Angel Salvadore TRUE     004_Angel Salvado… angel-salvad…             1
#>  3 006   Phoenix         TRUE     006_Phoenix        phoenix_muta…             1
#>  4 007   Birdman         TRUE     007_Birdman        birdman_eter…             1
#>  5 008   Simon Baz       TRUE     008_Simon Baz      simon-baz_hu…             1
#>  6 010   Cyborg Superman TRUE     010_Cyborg Superm… cyborg-super…             2
#>  7 012   Shang-Chi       TRUE     012_Shang-Chi (Xu… shang-chi_hu…             1
#>  8 014   Clea            TRUE     014_Clea           clea_unknown…             1
#>  9 015   Loki            TRUE     015_Loki (Loki La… loki_asgardi…             1
#> 10 017   Swarm           TRUE     017_Swarm          swarm_mutant…             2
#> # … with 17 more rows, and 11 more variables: Class_Start <dttm>,
#> #   Class_End <dttm>, First_Join_Time <dttm>, Last_Leave_Time <dttm>,
#> #   Before_Class <Period>, During_Class <Period>, After_Class <Period>,
#> #   Total_Time <Period>, Duration_Minutes <dbl>, Multi_Device <lgl>,
#> #   Late_Time <Period>
…
