…
### Class Session

Suppose that our Zoom classroom was started at 10:00 and ended at 12:00
(24 hours clock time), I will call `class_session()` as follows:

``` r
pp_heroes_session <- 
  class_session(pp_heroes, 
                class_start = "10:00",
                class_end = "12:00"
                )

pp_heroes_session
#> # A tibble: 31 × 17
#>    `Name (Original N… Name    Name_Original Email    Session Class_Start        
#>    <chr>              <chr>   <chr>         <chr>      <int> <dttm>             
#>  1 001_Magus          001_Ma… <NA>          magus_u…       1 2021-11-19 10:00:00
#>  2 002_She-Thing      002_Sh… <NA>          she-thi…       1 2021-11-19 10:00:00
#>  3 003_Power Girl (K… 003_Po… Kara Zor-L    power-g…       1 2021-11-19 10:00:00
#>  4 003_Power Girl (K… 003_Po… Kara Zor-L    power-g…       2 2021-11-19 10:00:00
#>  5 004_Angel Salvado… 004_An… <NA>          angel-s…       1 2021-11-19 10:00:00
#>  6 005_Donna Troy     005_Do… <NA>          donna-t…       1 2021-11-19 10:00:00
#>  7 006_Phoenix        006_Ph… <NA>          phoenix…       1 2021-11-19 10:00:00
#>  8 007_Birdman        007_Bi… <NA>          birdman…       1 2021-11-19 10:00:00
#>  9 008_Simon Baz      008_Si… <NA>          simon-b…       1 2021-11-19 10:00:00
#> 10 009_Juggernaut (C… 009_Ju… Cain Marko    juggern…       1 2021-11-19 10:00:00
#> # … with 21 more rows, and 11 more variables: Class_End <dttm>,
#> #   Join_Time <dttm>, Leave_Time <dttm>, Before_Class <Period>,
#> #   During_Class <Period>, After_Class <Period>, Total_Time <Period>,
#> #   Duration_Minutes <dbl>, Guest <chr>, Rec_Consent <chr>, Multi_Device <lgl>
```
…
