Introduction to zoomclass • zoomclass
…
Class Session

Suppose that our Zoom classroom was started at 10:00 and ended at 12:00, I will call class_session() as follows:

(Input class_start and class_end as 24-hours clock time with no AM or PM)

pp_heroes_session <- 
  class_session(pp_heroes, 
                class_start = "10:00", # Official class started at 10:00 AM
                class_end = "12:00" # Official class ended at 12:00 PM
                )

pp_heroes_session
#> # A tibble: 31 × 17
#>    `Name (Original Name)`  Name  Name_Original Email Session Class_Start        
#>    <chr>                   <chr> <chr>         <chr>   <int> <dttm>             
#>  1 001_Magus               001_… NA            magu…       1 2021-11-19 10:00:00
#>  2 002_She-Thing           002_… NA            she-…       1 2021-11-19 10:00:00
#>  3 003_Power Girl (Kara Z… 003_… Kara Zor-L    powe…       1 2021-11-19 10:00:00
#>  4 003_Power Girl (Kara Z… 003_… Kara Zor-L    powe…       2 2021-11-19 10:00:00
#>  5 004_Angel Salvadore     004_… NA            ange…       1 2021-11-19 10:00:00
#>  6 005_Donna Troy          005_… NA            donn…       1 2021-11-19 10:00:00
#>  7 006_Phoenix             006_… NA            phoe…       1 2021-11-19 10:00:00
#>  8 007_Birdman             007_… NA            bird…       1 2021-11-19 10:00:00
#>  9 008_Simon Baz           008_… NA            simo…       1 2021-11-19 10:00:00
#> 10 009_Juggernaut (Cain M… 009_… Cain Marko    jugg…       1 2021-11-19 10:00:00
#> # … with 21 more rows, and 11 more variables: Class_End <dttm>,
#> #   Join_Time <dttm>, Leave_Time <dttm>, Before_Class <Period>,
#> #   During_Class <Period>, After_Class <Period>, Total_Time <Period>,
#> #   Duration_Minutes <dbl>, Guest <chr>, Rec_Consent <chr>, Multi_Device <lgl>
…
